module gitlab.com/lorenzo_mondani/jmxreceiver

go 1.17

require (
	github.com/open-telemetry/opentelemetry-collector-contrib/internal/common v0.56.0
	github.com/shirou/gopsutil/v3 v3.22.6
	github.com/stretchr/testify v1.8.0
	github.com/testcontainers/testcontainers-go v0.13.0
	go.opentelemetry.io/collector v0.56.0
	go.opentelemetry.io/collector/pdata v0.56.0
	go.uber.org/atomic v1.9.0
	go.uber.org/zap v1.21.0

)

require (
	cloud.google.com/go/compute v1.6.1 // indirect
	github.com/Azure/go-ansiterm v0.0.0-20210617225240-d185dfc1b5a1 // indirect
	github.com/Microsoft/go-winio v0.4.17 // indirect
	github.com/Microsoft/hcsshim v0.8.23 // indirect
	github.com/cenkalti/backoff/v4 v4.1.3 // indirect
	github.com/containerd/cgroups v1.0.1 // indirect
	github.com/containerd/containerd v1.5.9 // indirect
	github.com/davecgh/go-spew v1.1.1 // indirect
	github.com/docker/distribution v2.7.1+incompatible // indirect
	github.com/docker/docker v20.10.17+incompatible // indirect
	github.com/docker/go-connections v0.4.0 // indirect
	github.com/docker/go-units v0.4.0 // indirect
	github.com/felixge/httpsnoop v1.0.3 // indirect
	github.com/fsnotify/fsnotify v1.5.4 // indirect
	github.com/go-logr/logr v1.2.3 // indirect
	github.com/go-logr/stdr v1.2.2 // indirect
	github.com/go-ole/go-ole v1.2.6 // indirect
	github.com/gogo/protobuf v1.3.2 // indirect
	github.com/golang/groupcache v0.0.0-20210331224755-41bb18bfe9da // indirect
	github.com/golang/protobuf v1.5.2 // indirect
	github.com/golang/snappy v0.0.4 // indirect
	github.com/google/uuid v1.3.0 // indirect
	github.com/json-iterator/go v1.1.12 // indirect
	github.com/klauspost/compress v1.15.8 // indirect
	github.com/knadh/koanf v1.4.2 // indirect
	github.com/lufia/plan9stats v0.0.0-20211012122336-39d0f177ccd0 // indirect
	github.com/magiconair/properties v1.8.6 // indirect
	github.com/mitchellh/copystructure v1.2.0 // indirect
	github.com/mitchellh/mapstructure v1.5.0 // indirect
	github.com/mitchellh/reflectwalk v1.0.2 // indirect
	github.com/moby/sys/mount v0.2.0 // indirect
	github.com/moby/sys/mountinfo v0.5.0 // indirect
	github.com/moby/term v0.0.0-20210619224110-3f7ff695adc6 // indirect
	github.com/modern-go/concurrent v0.0.0-20180306012644-bacd9c7ef1dd // indirect
	github.com/modern-go/reflect2 v1.0.2 // indirect
	github.com/morikuni/aec v0.0.0-20170113033406-39771216ff4c // indirect
	github.com/mostynb/go-grpc-compression v1.1.16 // indirect
	github.com/opencontainers/go-digest v1.0.0 // indirect
	github.com/opencontainers/image-spec v1.0.2 // indirect
	github.com/opencontainers/runc v1.0.3 // indirect
	github.com/pelletier/go-toml v1.9.4 // indirect
	github.com/pkg/errors v0.9.1 // indirect
	github.com/pmezard/go-difflib v1.0.0 // indirect
	github.com/power-devops/perfstat v0.0.0-20210106213030-5aafc221ea8c // indirect
	github.com/rs/cors v1.8.2 // indirect
	github.com/sirupsen/logrus v1.8.1 // indirect
	github.com/tklauser/go-sysconf v0.3.10 // indirect
	github.com/tklauser/numcpus v0.4.0 // indirect
	github.com/yusufpapurcu/wmi v1.2.2 // indirect
	go.opencensus.io v0.23.0 // indirect
	go.opentelemetry.io/contrib/instrumentation/google.golang.org/grpc/otelgrpc v0.33.0 // indirect
	go.opentelemetry.io/contrib/instrumentation/net/http/otelhttp v0.33.0 // indirect
	go.opentelemetry.io/otel v1.8.0 // indirect
	go.opentelemetry.io/otel/metric v0.31.0 // indirect
	go.opentelemetry.io/otel/trace v1.8.0 // indirect
	go.uber.org/multierr v1.8.0 // indirect
	golang.org/x/net v0.0.0-20220412020605-290c469a71a5 // indirect
	golang.org/x/oauth2 v0.0.0-20220411215720-9780585627b5 // indirect
	golang.org/x/sys v0.0.0-20220520151302-bc2c85ada10a // indirect
	golang.org/x/text v0.3.7 // indirect
	google.golang.org/appengine v1.6.7 // indirect
	google.golang.org/genproto v0.0.0-20220421151946-72621c1f0bd3 // indirect
	google.golang.org/grpc v1.48.0 // indirect
	google.golang.org/protobuf v1.28.0 // indirect
	gopkg.in/yaml.v3 v3.0.1 // indirect
)

replace github.com/open-telemetry/opentelemetry-collector-contrib/internal/common => ../../internal/common
